{
    "applications": {
        "Parse Demo": {
            "applicationId": "2MAPL1tC88Q3uxq6S6yjAzTKwEH5OV3DnzK4ySZJ", 
            "masterKey": "JXdDZ9K5t3rOEhjh1BEk1vI4smzcOfvIWFAqlssb"
        }, 
        "_default": {
            "link": "Parse Demo"
        }
    }, 
    "global": {
        "parseVersion": "1.4.2"
    }
}